…
> sgg_ohca <- sgg_ohca %>%
+         mutate(ohca_ratio_100k = ohca_ratio * 100000)
> 
> # 시군구별, 연령별, 성별, 심정시 발생 확률 - Export output
> write.csv(sgg_ohca, file.path("output/tab", "ohca_likelihood.csv"))
> 
> # 이제 중요한 것은 ohca_ratio
> # ohca_ratio를 격자별 인구에 곱함.
> # temp <- temp %>% filter(gid %in% pop_gid)
> temp <- temp %>% mutate(name = SIGUNGU_NM) %>% left_join(sgg_ohca, by=c("name", "sex"))
> temp <- temp %>%
+         mutate(val_ohca = val * ohca_ratio)
> 
> temp %>% filter(is.na(val_ohca)) # there are NA of val_ohca
# A tibble: 11,762 × 10
   gid         val sex   SIGUNGU_NM name    pop  ohca ohca_ratio ohca_ratio_100k
   <chr>     <dbl> <chr> <chr>      <chr> <dbl> <dbl>      <dbl>           <dbl>
 1 다바96a9…     0 90대… 음성군     음성…     0     2        Inf             Inf
 2 다바96a9…     0 90대… 음성군     음성…     0     2        Inf             Inf
 3 다바95b9…     0 90대… 음성군     음성…     0     2        Inf             Inf
 4 다바96b9…     0 90대… 음성군     음성…     0     2        Inf             Inf
 5 다바95b9…     0 90대… 음성군     음성…     0     2        Inf             Inf
 6 다바97a9…     0 90대… 음성군     음성…     0     2        Inf             Inf
 7 다바98a9…     0 90대… 음성군     음성…     0     2        Inf             Inf
 8 다바97b9…     0 90대… 음성군     음성…     0     2        Inf             Inf
 9 라사12b0…     0 90대… 음성군     음성…     0     2        Inf             Inf
10 라사13b0…     0 90대… 음성군     음성…     0     2        Inf             Inf
# ℹ 11,752 more rows
# ℹ 1 more variable: val_ohca <dbl>
…
