…
    transpose

> 
> 
> poi <- read_csv("./data/raw/firestation_sido_20200121.csv", skip=1)
Rows: 224 Columns: 6
── Column specification ────────────────────────────────────────────────────────
Delimiter: ","
chr (5): 본부명, 소방서, 주소, 전화번호, FAX
dbl (1): 순번

ℹ Use `spec()` to retrieve the full column specification for this data.
ℹ Specify the column types or set `show_col_types = FALSE` to quiet this message.
> poi
# A tibble: 224 × 6
    순번 본부명           소방서       주소                       전화번호 FAX  
   <dbl> <chr>            <chr>        <chr>                      <chr>    <chr>
 1     1 서울소방재난본부 강남소방서   서울특별시 강남구 테헤란…  02-6981… 02-5…
 2     2 서울소방재난본부 강동소방서   서울특별시 강동구 성내로 … 02-470-… 02-4…
 3     3 서울소방재난본부 강북소방서   서울특별시 강북구 한천로 … 02-6946… 02-6…
 4     4 서울소방재난본부 강서소방서   서울특별시 강서구 양천로 … 02-3663… 02-3…
 5     5 서울소방재난본부 관악소방서   서울특별시 관악구 관악로 … 02-6981… 02-8…
 6     6 서울소방재난본부 광진소방서   서울특별시 광진구 광나루…  02-457-… 02-4…
 7     7 서울소방재난본부 구로소방서   서울특별시 구로구 경인로 … 02-2618… 02-2…
 8     8 서울소방재난본부 노원소방서   서울특별시 노원구 한글비…  02-6981… 02-9…
 9     9 서울소방재난본부 도봉소방서   서울특별시 도봉구 도봉로 … 02-6981… 02-3…
10    10 서울소방재난본부 동대문소방서 서울특별시 동대문구 장한…  02-6942… 02-2…
# ℹ 214 more rows
> 
> poi <- poi %>%
+         filter(grepl("충북|세종|대전|충남", 본부명))
> poi
# A tibble: 36 × 6
    순번 본부명       소방서       주소                           전화번호 FAX  
   <dbl> <chr>        <chr>        <chr>                          <chr>    <chr>
 1    59 대전소방본부 대덕소방서   대전광역시 대덕구 계족로 682   042-270… 042-…
 2    60 대전소방본부 동부소방서   대전광역시 동구 계족로 300     042-270… 042-…
 3    61 대전소방본부 둔산소방서   대전광역시 서구 갈마중로 15    042-270… 042-…
 4    62 대전소방본부 서부소방서   대전광역시 서구 북부서로 67    042-270… 042-…
 5    63 대전소방본부 유성소방서   대전광역시 유성구 대덕대로 516 042-270… 042-…
 6    68 세종소방본부 중부소방서   울산광역시 중구 종가로 205     052-210… 052-…
 7    69 세종소방본부 세종소방서   세종특별자치시 절재로 301(어…  044-300… 044-…
 8    70 세종소방본부 조치원소방서 세종특별자치시 조치원읍 세종…  044-300… 044-…
 9   124 충북소방본부 괴산소방서   충청북도 괴산군 괴산읍 괴강로… 043-760… 043-…
10   125 충북소방본부 단양소방서   충청북도 단양군 단양읍 별곡리… 043-767… 043-…
# ℹ 26 more rows
> 
> firestation <- read.csv("./data/raw/firestation_sido_2021.12.31.csv") %>%
+         as_tibble# 소방서
> firestation
# A tibble: 230 × 5
    순번 본부명 소방서       주소                                       전화번호
   <int> <chr>  <chr>        <chr>                                      <chr>   
 1     1 서울   종로소방서   서울특별시 종로구 율곡로 78(운니동 114-2)  02-6981…
 2     2 서울   중부소방서   서울특별시 중구 퇴계로 394(무학동)         02-2233…
 3     3 서울   광진소방서   서울특별시 광진구 광나루로 480 (구의동)    02-6981…
 4     4 서울   용산소방서   서울특별시 용산구 한강대로 167 (한강로2가) 02-6943…
 5     5 서울   동대문소방서 서울특별시 동대문구 장한로 34 (장안동)     02-6942…
 6     6 서울   영등포소방서 서울특별시 영등포구 문래로 197 (영등포동4… 02-6981…
 7     7 서울   성북소방서   서울특별시 성북구 종암로 27길 3 (종암동)   02-6981…
 8     8 서울   은평소방서   서울특별시 은평구 통일로 962 (진관동)      02-6981…
 9     9 서울   강남소방서   서울특별시 강남구 테헤란로 629 (삼성동)    02-6981…
10    10 서울   서초소방서   서울특별시 서초구 사평대로 67 (반포동)     02-594-…
# ℹ 220 more rows
> 
> firesafe <- read.csv("./data/raw/fire_safe_2021.csv") %>% as_tibble
> 
> firesafe
# A tibble: 1,100 × 6
    순번 시도본부 소방서 X119안전센터명    주소                         전화번호
   <int> <chr>    <chr>  <chr>             <chr>                        <chr>   
 1     1 서울     종로   세종로119안전센터 서울특별시 종로구 율곡로 78… 02-6981…
 2     2 서울     종로   신교119안전센터   서울특별시 종로구 자하문로 … 02-737-…
 3     3 서울     종로   종로119안전센터   서울특별시 종로구 돈화문로 … 02-747-…
 4     4 서울     종로   연건119안전센터   서울특별시 종로구 대학로 91… 02-747-…
 5     5 서울     종로   신영119안전센터   서울특별시 종로구 진흥로 47… 02-391-…
 6     6 서울     종로   숭인119안전센터   서울특별시 종로구 숭인동길 … 02-929-…
 7     7 서울     중부   을지로119안전센터 서울특별시 중구 을지로45길 … 02-2235…
 8     8 서울     중부   무학119안전센터   서울특별시 중구 퇴계로 394 … 02-2252…
 9     9 서울     중부   충무로119안전센터 서울특별시 중구 충무로 11(…  02-2265…
10    10 서울     중부   회현119안전센터   서울특별시 중구 소공로 30(…  02-775-…
# ℹ 1,090 more rows
…
