…
+                 max_speed > 0 & velocity == 0 ~ max_speed,
+                 max_speed == 0 & velocity == 0 & road_rank %in% c(101, 102) ~ 100,
+                 max_speed == 0 & velocity == 0 & road_rank %in% 103:106 ~ 80,
+                 max_speed == 0 & velocity == 0 & road_rank == 107 ~ 60,
+                 max_speed == 0 & velocity == 0 & road_rank == 108 ~ 40,
+                 TRUE ~ 0
+         ))
> 
> temp %>% filter(velocity == 0)
Simple feature collection with 10824 features and 38 fields
Geometry type: LINESTRING
Dimension:     XY
Bounding box:  xmin: 878163.5 ymin: 1777274 xmax: 1098513 ymax: 1912479
Projected CRS: ITRF_2000_UTM_K
# A tibble: 10,824 × 39
     link_id up_f_node up_t_node dw_f_node dw_t_node max_speed road_name road_no
 *     <dbl>     <dbl>     <dbl>     <dbl>     <dbl>     <dbl> <chr>     <chr>  
 1 555615410    283703    283704    283704    283703         0 "\xc0\xe… 0      
 2 555615828    283564    283706    283706    283564         0 "\xc3\xb… 0      
 3 555616020    283547    640703    640703    283547        60 "\xb1\xd… 0      
 4 555700584    283781    283782    283782    283781         0  <NA>     0      
 5 555701814    609555    609556    609556    609555         0 "\xc0\xe… 0      
 6 555702548    640766    640767    640767    640766         0  <NA>     0      
 7 555702549    640790    640767    640767    640790         0 "\xc0\xc… 0      
 8 555800150    283934    283936    283936    283934         0  <NA>     0      
 9 555800157    283935    283936    283936    283935         0  <NA>     0      
10 555810224    283962    283964         0         0         0 "\xb0\xe… 1      
# ℹ 10,814 more rows
# ℹ 31 more variables: road_rank <dbl>, link_type <dbl>, pavement <dbl>,
#   road_type <dbl>, facil_name <chr>, tg_name <chr>, up_lanes <dbl>,
#   dw_lanes <dbl>, lanes <dbl>, oneway <dbl>, length <dbl>, up_its_id <dbl>,
#   dw_its_id <dbl>, sido_id <dbl>, sigungu_id <dbl>, emd_id <dbl>,
#   up_v_link <dbl>, dw_v_link <dbl>, m_date <dbl>, rc_id <chr>, rc_name <chr>,
#   rc_hist <chr>, rc_date <dbl>, rc_length <dbl>, old_link_i <dbl>, …
> 
> temp %>% select(velocity, speed_imputed)
Simple feature collection with 105178 features and 2 fields
Geometry type: LINESTRING
Dimension:     XY
Bounding box:  xmin: 877767.5 ymin: 1776339 xmax: 1101196 ymax: 1916527
Projected CRS: ITRF_2000_UTM_K
# A tibble: 105,178 × 3
   velocity speed_imputed                                               geometry
      <dbl>         <dbl>                                       <LINESTRING [m]>
 1     35.8             0 (999880.3 1807363, 999866.5 1807431, 999863 1807440, …
 2     34.2             0 (999880.3 1807363, 999880.2 1807357, 999878.6 1807352…
 3     44.2             0 (1000007 1808498, 999987.2 1808497, 999864.9 1808477,…
 4     56.4             0 (999350.7 1808559, 999376.2 1808532, 999392.6 1808518…
 5     28.1             0 (1011060 1795551, 1011058 1795552, 1011057 1795553, 1…
 6     25.0             0                     (1009693 1792765, 1009691 1792780)
 7     36.0             0                     (1009691 1792780, 1009666 1792957)
 8      0              60                     (1009666 1792957, 1009663 1792974)
 9      0              60 (1011002 1795623, 1010994 1795630, 1010965 1795645, 1…
10     64.2             0 (1012347 1791941, 1012340 1791938, 1012231 1791901, 1…
# ℹ 105,168 more rows
…
